Test1?
1) a
2) b
3) c
1
Matematica
##
Test2?
1) a
2) b
3) c
2
Biologie
##
Test3?
1) a
2) b
3) c
1
Matematica
##
Test4?
1) a
2) b
3) c
2
Geografie
##
Test5?
1) a
2) b
3) c
3
Matematica
##